%YAML 1.1
%TAG !u! tag:unity3d.com,2011:
--- !u!1045 &1
EditorBuildSettings:
  m_ObjectHideFlags: 0
  serializedVersion: 2
  m_Scenes:
  - enabled: 1
    path: Assets/Bearded Man Studios Inc/Scenes/MultiplayerMenu.unity
    guid: a5b9e296c950dcc4d862eeda4ce5052a
  - enabled: 1
    path: Assets/Scenes/TestScene.unity
    guid: a3a063c393c55c34888119bbce4d5d75
  m_configObjects: {}
